[gd_scene load_steps=5 format=2]

[ext_resource path="res://scripts/Spawner.gd" type="Script" id=1]
[ext_resource path="res://scenes/Sigmund.tscn" type="PackedScene" id=2]
[ext_resource path="res://CrawlTiles.png" type="Texture" id=3]

[sub_resource type="Animation" id=1]
resource_name = "Spawner"
length = 2.0
loop = true
tracks/0/type = "value"
tracks/0/path = NodePath(".:frame")
tracks/0/interp = 1
tracks/0/loop_wrap = true
tracks/0/imported = false
tracks/0/enabled = true
tracks/0/keys = {
"times": PoolRealArray( 0, 2 ),
"transitions": PoolRealArray( 1, 1 ),
"update": 0,
"values": [ 0, 6 ]
}

[node name="Spawner" type="Node2D"]
script = ExtResource( 1 )
enemy = ExtResource( 2 )
wait_time = 5.0

[node name="Sprite" type="Sprite" parent="."]
texture = ExtResource( 3 )
hframes = 7
frame = 2
region_enabled = true
region_rect = Rect2( 0, 32, 224, 32 )

[node name="AnimationPlayer" type="AnimationPlayer" parent="."]
root_node = NodePath("../Sprite")
anims/Spawner = SubResource( 1 )

[node name="Spawned" type="Node2D" parent="."]

[node name="Timer" type="Timer" parent="."]
autostart = true
