[gd_scene load_steps=5 format=2]

[ext_resource path="res://scripts/Map.gd" type="Script" id=1]
[ext_resource path="res://assets/tiles/blighted_bridge.tmx" type="PackedScene" id=2]
[ext_resource path="res://scenes/InvisSpawner.tscn" type="PackedScene" id=3]

[sub_resource type="NavigationPolygon" id=1]
vertices = PoolVector2Array( 463.753, 841.508, 526.367, 853.785, 526.367, 979.015, 396.227, 970.42, 397.455, 848.874, 430.604, 841.508, 143.455, 177.363, 44.953, 173.687, 46.4232, 45.781, 145.768, 52.0717, 149.452, 76.6265, 145.661, 142.078, 208.879, 138.403, 863.995, 76.6265, 422.01, 780.121, 210.839, 589.821, 209.611, 528.434, 209.611, 432.671, 402.366, 436.354, 466.208, 787.487, 883.639, 83.993, 883.639, 141.697, 531.013, 135.923, 241.31, 144.045, 213.294, 783.804, 399.91, 274.292, 496.902, 273.065, 530.051, 411.799, 534.961, 436.354, 43.8661, 586.138, 45.0938, 528.434, 247.839, 208.236, 332.374, 216.322, 331.639, 306.739, 177.27, 306.004, 173.594, 208.236, 208.879, 203.091, 498.523, 142.24, 529.208, 153.973, 728.944, 530.89, 945.026, 537.029, 943.798, 593.505, 728.944, 592.277, 720.35, 607.01, 705.617, 780.121, 715.439, 436.354 )
polygons = [ PoolIntArray( 0, 1, 2, 3, 4, 5 ), PoolIntArray( 6, 7, 8, 9, 10, 11 ), PoolIntArray( 12, 11, 10, 13 ), PoolIntArray( 14, 15, 16, 17, 18, 19 ), PoolIntArray( 20, 21, 22, 13 ), PoolIntArray( 12, 13, 22, 23 ), PoolIntArray( 14, 24, 15 ), PoolIntArray( 18, 25, 26, 27, 28, 19 ), PoolIntArray( 15, 29, 30, 16 ), PoolIntArray( 31, 32, 33, 34, 35 ), PoolIntArray( 31, 35, 36 ), PoolIntArray( 23, 31, 36, 12 ), PoolIntArray( 37, 23, 22 ), PoolIntArray( 37, 22, 38, 26 ), PoolIntArray( 26, 38, 27 ), PoolIntArray( 39, 40, 41, 42 ), PoolIntArray( 19, 0, 5, 14 ), PoolIntArray( 43, 44, 19, 28 ), PoolIntArray( 28, 45, 39, 42, 43 ), PoolIntArray( 16, 30, 30 ) ]
outlines = [ PoolVector2Array( 46.4232, 45.781, 44.953, 173.687, 143.455, 177.363, 145.661, 142.078, 208.879, 138.403, 208.879, 203.091, 173.594, 208.236, 177.27, 306.004, 331.639, 306.739, 332.374, 216.322, 247.839, 208.236, 241.31, 144.045, 498.523, 142.24, 496.902, 273.065, 399.91, 274.292, 402.366, 436.354, 209.611, 432.671, 209.611, 528.434, 45.0938, 528.434, 45.0938, 528.434, 43.8661, 586.138, 210.839, 589.821, 213.294, 783.804, 422.01, 780.121, 430.604, 841.508, 397.455, 848.874, 396.227, 970.42, 526.367, 979.015, 526.367, 853.785, 463.753, 841.508, 466.208, 787.487, 705.617, 780.121, 720.35, 607.01, 728.944, 592.277, 943.798, 593.505, 945.026, 537.029, 728.944, 530.89, 715.439, 436.354, 534.961, 436.354, 530.051, 411.799, 529.208, 153.973, 531.013, 135.923, 883.639, 141.697, 883.639, 83.993, 863.995, 76.6265, 149.452, 76.6265, 145.768, 52.0717 ) ]

[node name="Level" type="Node2D"]

[node name="Map" type="Navigation2D" parent="."]
editor/display_folded = true
z_index = -2
script = ExtResource( 1 )

[node name="blighted_bridge" parent="Map" instance=ExtResource( 2 )]
z_index = -2

[node name="Spawner" parent="." instance=ExtResource( 3 )]
position = Vector2( 210, 240 )

[node name="Spawner2" parent="." instance=ExtResource( 3 )]
position = Vector2( 820, 110 )

[node name="Spawner3" parent="." instance=ExtResource( 3 )]
position = Vector2( 80, 560 )

[node name="Spawner4" parent="." instance=ExtResource( 3 )]
position = Vector2( 880, 560 )

[node name="Navmesh" type="Navigation2D" parent="."]

[node name="NavigationPolygonInstance" type="NavigationPolygonInstance" parent="Navmesh"]
navpoly = SubResource( 1 )
