[gd_scene load_steps=5 format=2]

[ext_resource path="res://scripts/Map.gd" type="Script" id=1]
[ext_resource path="res://assets/tiles/crazy_corridor.tmx" type="PackedScene" id=2]
[ext_resource path="res://scenes/InvisSpawner.tscn" type="PackedScene" id=3]

[sub_resource type="NavigationPolygon" id=1]
vertices = PoolVector2Array( 658, 499, 658.589, 567.753, 593, 559, 525, 557, 459.678, 561.751, 460.535, 366.27, 661.161, 362.84, 660, 429, 816, 428, 814.631, 205.083, 856.643, 205.94, 854.928, 662.922, 106.439, 211.085, 43.8508, 210.227, 47.2803, 41.3243, 239.332, 44.7538, 242.762, 105.627, 244.477, 149.354, 193.034, 205.94, 424.526, 107.342, 428.812, 76.4767, 462.25, 76.4767, 464.822, 178.504, 431.384, 180.219, 422.811, 146.781, 236.76, 209.37, 176.744, 215.372, 109.011, 756.375, 176, 686, 591.714, 755.518, 513.692, 689.5, 779.479, 657.777, 779.479, 619.195, 813.774, 608.049, 813, 502, 525.696, 671.495 )
polygons = [ PoolIntArray( 0, 1, 2 ), PoolIntArray( 3, 4, 5, 6, 7, 0 ), PoolIntArray( 8, 9, 10, 11 ), PoolIntArray( 12, 13, 14, 15, 16, 17, 18 ), PoolIntArray( 19, 20, 21, 22, 23, 24 ), PoolIntArray( 16, 19, 24, 17 ), PoolIntArray( 17, 25, 18 ), PoolIntArray( 12, 18, 26 ), PoolIntArray( 27, 12, 26, 28 ), PoolIntArray( 29, 27, 28, 30 ), PoolIntArray( 11, 31, 32, 33 ), PoolIntArray( 8, 11, 33, 34 ), PoolIntArray( 7, 8, 34, 0 ), PoolIntArray( 3, 0, 2 ), PoolIntArray( 35, 3, 2, 29 ), PoolIntArray( 29, 30, 35 ) ]
outlines = [ PoolVector2Array( 464.822, 178.504, 462.25, 76.4767, 428.812, 76.4767, 424.526, 107.342, 242.762, 105.627, 239.332, 44.7538, 47.2803, 41.3243, 43.8508, 210.227, 106.439, 211.085, 109.011, 756.375, 591.714, 755.518, 593, 559, 658.589, 567.753, 658, 499, 813, 502, 813.774, 608.049, 779.479, 619.195, 779.479, 657.777, 854.928, 662.922, 856.643, 205.94, 814.631, 205.083, 816, 428, 660, 429, 661.161, 362.84, 460.535, 366.27, 459.678, 561.751, 525, 557, 525.696, 671.495, 513.692, 689.5, 176, 686, 176.744, 215.372, 193.034, 205.94, 236.76, 209.37, 244.477, 149.354, 422.811, 146.781, 431.384, 180.219 ) ]

[node name="Level" type="Node2D"]

[node name="Map" type="Navigation2D" parent="."]
z_index = -2
script = ExtResource( 1 )

[node name="crazy_corridor" parent="Map" instance=ExtResource( 2 )]
z_index = -2

[node name="Spawner" parent="." instance=ExtResource( 3 )]
position = Vector2( 430, 110 )

[node name="Spawner2" parent="." instance=ExtResource( 3 )]
position = Vector2( 430, 140 )

[node name="Spawner3" parent="." instance=ExtResource( 3 )]
position = Vector2( 140, 400 )

[node name="Spawner4" parent="." instance=ExtResource( 3 )]
position = Vector2( 820, 620 )

[node name="Navmesh" type="Navigation2D" parent="."]

[node name="NavigationPolygonInstance" type="NavigationPolygonInstance" parent="Navmesh"]
navpoly = SubResource( 1 )
